{
  "testFiles": "**/*.{feature,features}",
  "ignoreTestFiles": [
    "**/stepdefinitions/*",
    "*.js",
    "*.md"
  ],
  "reporter": "mochawesome",
  "reporterOptions": {
    "reportFilename": "test-report"
  },
  "retries": {
    "runMode": 2,
    "openMode": 0
  }
}